Data wrangling and dplyr
…
allows you summarize your data

mutate()

allows you to modify your data

The great thing about these verbs is that they can be combined with the operator %>% so that you can perform multiple operations at once.

select()

select() allows you to choose a column or multiple columns. The first argument (if you don’t use %>%) should be the dataframe, the second should be the column name. You don’t need to put quotes ("") around the column name in dplyr.

select(starwars, name)

## # A tibble: 87 × 1
##    name              
##    <chr>             
##  1 Luke Skywalker    
##  2 C-3PO             
##  3 R2-D2             
##  4 Darth Vader       
##  5 Leia Organa       
##  6 Owen Lars         
##  7 Beru Whitesun lars
##  8 R5-D4             
##  9 Biggs Darklighter 
## 10 Obi-Wan Kenobi    
## # … with 77 more rows

You can include as many column names as arguments to select multiple columns (and you don’t need to use c()).

select(starwars, name, species)

## # A tibble: 87 × 2
##    name               species
##    <chr>              <chr>  
##  1 Luke Skywalker     Human  
##  2 C-3PO              Droid  
##  3 R2-D2              Droid  
##  4 Darth Vader        Human  
##  5 Leia Organa        Human  
##  6 Owen Lars          Human  
##  7 Beru Whitesun lars Human  
##  8 R5-D4              Droid  
##  9 Biggs Darklighter  Human  
## 10 Obi-Wan Kenobi     Human  
## # … with 77 more rows

We can also write the code using the pipe operator %>%. For simple examples you don’t need to use them but as your code gets more complex the pipe operators will make your code easier to understand. If you use %>%, then the first argument that you explicitly write is the first column name you want to select.

starwars %>% 
    select(name, species)

## # A tibble: 87 × 2
##    name               species
##    <chr>              <chr>  
##  1 Luke Skywalker     Human  
##  2 C-3PO              Droid  
##  3 R2-D2              Droid  
##  4 Darth Vader        Human  
##  5 Leia Organa        Human  
##  6 Owen Lars          Human  
##  7 Beru Whitesun lars Human  
##  8 R5-D4              Droid  
##  9 Biggs Darklighter  Human  
## 10 Obi-Wan Kenobi     Human  
## # … with 77 more rows

The order the function outputs will be the same as what you put into select(), not the original order of the data frame.

starwars %>% 
    select(species, name)

## # A tibble: 87 × 2
##    species name              
##    <chr>   <chr>             
##  1 Human   Luke Skywalker    
##  2 Droid   C-3PO             
##  3 Droid   R2-D2             
##  4 Human   Darth Vader       
##  5 Human   Leia Organa       
##  6 Human   Owen Lars         
##  7 Human   Beru Whitesun lars
##  8 Droid   R5-D4             
##  9 Human   Biggs Darklighter 
## 10 Human   Obi-Wan Kenobi    
## # … with 77 more rows

You can get fancy by using other functions within select() like starts_with() or contains().

starwars %>% 
    select(contains("color"))

## # A tibble: 87 × 3
##    hair_color    skin_color  eye_color
##    <chr>         <chr>       <chr>    
##  1 blond         fair        blue     
##  2 <NA>          gold        yellow   
##  3 <NA>          white, blue red      
##  4 none          white       yellow   
##  5 brown         light       brown    
##  6 brown, grey   light       blue     
##  7 brown         light       blue     
##  8 <NA>          white, red  red      
##  9 black         light       brown    
## 10 auburn, white fair        blue-gray
## # … with 77 more rows

Or by using select_if()

starwars %>% 
    select_if(is.numeric)

## # A tibble: 87 × 3
##    height  mass birth_year
##     <int> <dbl>      <dbl>
##  1    172    77       19  
##  2    167    75      112  
##  3     96    32       33  
##  4    202   136       41.9
##  5    150    49       19  
##  6    178   120       52  
##  7    165    75       47  
##  8     97    32       NA  
##  9    183    84       24  
## 10    182    77       57  
## # … with 77 more rows

To drop a column use - and to select a range of columns use :.

starwars %>% 
    select(-(hair_color:starships))

## # A tibble: 87 × 3
##    name               height  mass
##    <chr>               <int> <dbl>
##  1 Luke Skywalker        172    77
##  2 C-3PO                 167    75
##  3 R2-D2                  96    32
##  4 Darth Vader           202   136
##  5 Leia Organa           150    49
##  6 Owen Lars             178   120
##  7 Beru Whitesun lars    165    75
##  8 R5-D4                  97    32
##  9 Biggs Darklighter     183    84
## 10 Obi-Wan Kenobi        182    77
## # … with 77 more rows
…
filter()

To subset observations based on a condition use filter(). As with select() you can put the data frame inside the function or use %>%.

filter(starwars, species == "Human")

## # A tibble: 35 × 11
##    name    height  mass hair_color  skin_color eye_color birth_year sex   gender
##    <chr>    <int> <dbl> <chr>       <chr>      <chr>          <dbl> <chr> <chr> 
##  1 Luke S…    172    77 blond       fair       blue            19   male  mascu…
##  2 Darth …    202   136 none        white      yellow          41.9 male  mascu…
##  3 Leia O…    150    49 brown       light      brown           19   fema… femin…
##  4 Owen L…    178   120 brown, grey light      blue            52   male  mascu…
##  5 Beru W…    165    75 brown       light      blue            47   fema… femin…
##  6 Biggs …    183    84 black       light      brown           24   male  mascu…
##  7 Obi-Wa…    182    77 auburn, wh… fair       blue-gray       57   male  mascu…
##  8 Anakin…    188    84 blond       fair       blue            41.9 male  mascu…
##  9 Wilhuf…    180    NA auburn, gr… fair       blue            64   male  mascu…
## 10 Han So…    180    80 brown       fair       brown           29   male  mascu…
## # … with 25 more rows, and 2 more variables: homeworld <chr>, species <chr>

starwars %>%
        filter(species == "Human")

## # A tibble: 35 × 11
##    name    height  mass hair_color  skin_color eye_color birth_year sex   gender
##    <chr>    <int> <dbl> <chr>       <chr>      <chr>          <dbl> <chr> <chr> 
##  1 Luke S…    172    77 blond       fair       blue            19   male  mascu…
##  2 Darth …    202   136 none        white      yellow          41.9 male  mascu…
##  3 Leia O…    150    49 brown       light      brown           19   fema… femin…
##  4 Owen L…    178   120 brown, grey light      blue            52   male  mascu…
##  5 Beru W…    165    75 brown       light      blue            47   fema… femin…
##  6 Biggs …    183    84 black       light      brown           24   male  mascu…
##  7 Obi-Wa…    182    77 auburn, wh… fair       blue-gray       57   male  mascu…
##  8 Anakin…    188    84 blond       fair       blue            41.9 male  mascu…
##  9 Wilhuf…    180    NA auburn, gr… fair       blue            64   male  mascu…
## 10 Han So…    180    80 brown       fair       brown           29   male  mascu…
## # … with 25 more rows, and 2 more variables: homeworld <chr>, species <chr>
…
filter(eye_color == 'yellow' | species == "Human") returns those individuals for which eye color is equal to yellow, independent of species, OR those who are humans, independent of eye color.

starwars %>% 
    filter(eye_color == 'yellow' | species == "Human")

## # A tibble: 44 × 11
##    name    height  mass hair_color  skin_color eye_color birth_year sex   gender
##    <chr>    <int> <dbl> <chr>       <chr>      <chr>          <dbl> <chr> <chr> 
##  1 Luke S…    172    77 blond       fair       blue            19   male  mascu…
##  2 C-3PO      167    75 <NA>        gold       yellow         112   none  mascu…
##  3 Darth …    202   136 none        white      yellow          41.9 male  mascu…
##  4 Leia O…    150    49 brown       light      brown           19   fema… femin…
##  5 Owen L…    178   120 brown, grey light      blue            52   male  mascu…
##  6 Beru W…    165    75 brown       light      blue            47   fema… femin…
##  7 Biggs …    183    84 black       light      brown           24   male  mascu…
##  8 Obi-Wa…    182    77 auburn, wh… fair       blue-gray       57   male  mascu…
##  9 Anakin…    188    84 blond       fair       blue            41.9 male  mascu…
## 10 Wilhuf…    180    NA auburn, gr… fair       blue            64   male  mascu…
## # … with 34 more rows, and 2 more variables: homeworld <chr>, species <chr>
…
group_by()

You may have noticed that summarise() produces a data frame as its output. If you only need one value this may not be all that useful to you. However, your data is often more complex and you would like to know if there are differences between groups.

starwars %>% 
    group_by(species) %>% 
    summarise(
        count = n(),
        mn_mass = mean(mass, na.rm = T))

## # A tibble: 38 × 3
##    species   count mn_mass
##    <chr>     <int>   <dbl>
##  1 Aleena        1    15  
##  2 Besalisk      1   102  
##  3 Cerean        1    82  
##  4 Chagrian      1   NaN  
##  5 Clawdite      1    55  
##  6 Droid         6    69.8
##  7 Dug           1    40  
##  8 Ewok          1    20  
##  9 Geonosian     1    80  
## 10 Gungan        3    74  
## # … with 28 more rows
…
## # A tibble: 2 × 3
##   species count mn_mass
##   <chr>   <int>   <dbl>
## 1 Droid       6    69.8
## 2 Human      35    82.8

mutate()

Often you will need to modify a variable for some reason. Maybe you need to scale the data or log transform it. dplyr makes this pretty easy. mutate() will add a new column to the end of the data frame and won’t override the original data.

starwars %>% 
    select(name:mass) %>% 
    mutate(height_meter = height/100)

## # A tibble: 87 × 4
##    name               height  mass height_meter
##    <chr>               <int> <dbl>        <dbl>
##  1 Luke Skywalker        172    77         1.72
##  2 C-3PO                 167    75         1.67
##  3 R2-D2                  96    32         0.96
##  4 Darth Vader           202   136         2.02
##  5 Leia Organa           150    49         1.5 
##  6 Owen Lars             178   120         1.78
##  7 Beru Whitesun lars    165    75         1.65
##  8 R5-D4                  97    32         0.97
##  9 Biggs Darklighter     183    84         1.83
## 10 Obi-Wan Kenobi        182    77         1.82
## # … with 77 more rows
…
